<?xml version="1.0" encoding="UTF-8" standalone="no"?>
<!-- Created with Inkscape (http://www.inkscape.org/) -->
<svg
   xmlns:dc="http://purl.org/dc/elements/1.1/"
   xmlns:cc="http://creativecommons.org/ns#"
   xmlns:rdf="http://www.w3.org/1999/02/22-rdf-syntax-ns#"
   xmlns:svg="http://www.w3.org/2000/svg"
   xmlns="http://www.w3.org/2000/svg"
   xmlns:sodipodi="http://sodipodi.sourceforge.net/DTD/sodipodi-0.dtd"
   xmlns:inkscape="http://www.inkscape.org/namespaces/inkscape"
   width="210mm"
   height="297mm"
   id="svg2"
   sodipodi:version="0.32"
   inkscape:version="0.46"
   sodipodi:docname="glicerol.svg"
   inkscape:output_extension="org.inkscape.output.svg.inkscape">
  <defs
     id="defs4">
    <marker
       inkscape:stockid="Arrow1Lend"
       orient="auto"
       refY="0.0"
       refX="0.0"
       id="Arrow1Lend"
       style="overflow:visible;">
      <path
         id="path3397"
         d="M 0.0,0.0 L 5.0,-5.0 L -12.5,0.0 L 5.0,5.0 L 0.0,0.0 z "
         style="fill-rule:evenodd;stroke:#000000;stroke-width:1.0pt;marker-start:none;"
         transform="scale(0.8) rotate(180) translate(12.5,0)" />
    </marker>
    <inkscape:perspective
       sodipodi:type="inkscape:persp3d"
       inkscape:vp_x="0 : 526.18109 : 1"
       inkscape:vp_y="0 : 1000 : 0"
       inkscape:vp_z="744.09448 : 526.18109 : 1"
       inkscape:persp3d-origin="372.04724 : 350.78739 : 1"
       id="perspective10" />
  </defs>
  <sodipodi:namedview
     id="base"
     pagecolor="#ffffff"
     bordercolor="#666666"
     borderopacity="1.0"
     inkscape:pageopacity="0.0"
     inkscape:pageshadow="2"
     inkscape:zoom="0.24748737"
     inkscape:cx="-16.35368"
     inkscape:cy="381.58596"
     inkscape:document-units="px"
     inkscape:current-layer="layer1"
     showgrid="false"
     inkscape:window-width="1280"
     inkscape:window-height="755"
     inkscape:window-x="0"
     inkscape:window-y="24" />
  <metadata
     id="metadata7">
    <rdf:RDF>
      <cc:Work
         rdf:about="">
        <dc:format>image/svg+xml</dc:format>
        <dc:type
           rdf:resource="http://purl.org/dc/dcmitype/StillImage" />
      </cc:Work>
    </rdf:RDF>
  </metadata>
  <g
     inkscape:label="Camada 1"
     inkscape:groupmode="layer"
     id="layer1">
    <g
       id="g4816"
       transform="translate(270.72088,137.38075)"
       inkscape:export-filename="/home/vinicius/doc/qa/qb55d-capa/glicerol.png"
       inkscape:export-xdpi="90"
       inkscape:export-ydpi="90">
      <text
         inkscape:export-ydpi="90"
         inkscape:export-xdpi="90"
         inkscape:export-filename="/home/vinicius/doc/qa/qb55d-capa/glicerol.png"
         id="text2383"
         y="70.347374"
         x="9.776021"
         style="font-size:12.52200603px;font-style:normal;font-weight:bold;fill:#000000;fill-opacity:1;stroke:none;stroke-width:1px;stroke-linecap:butt;stroke-linejoin:miter;stroke-opacity:1;font-family:Bitstream Vera Sans;-inkscape-font-specification:Sans Bold"
         xml:space="preserve"><tspan
           y="70.347374"
           x="9.776021"
           id="tspan2385"
           sodipodi:role="line">CH</tspan></text>
      <text
         inkscape:export-ydpi="90"
         inkscape:export-xdpi="90"
         inkscape:export-filename="/home/vinicius/doc/qa/qb55d-capa/glicerol.png"
         id="text2387"
         y="72.22567"
         x="29.375828"
         style="font-size:12.52200603px;font-style:normal;font-weight:bold;fill:#000000;fill-opacity:1;stroke:none;stroke-width:1px;stroke-linecap:butt;stroke-linejoin:miter;stroke-opacity:1;font-family:Bitstream Vera Sans;-inkscape-font-specification:Sans Bold"
         xml:space="preserve"><tspan
           style="font-size:6.26100302px"
           y="72.22567"
           x="29.375828"
           id="tspan2389"
           sodipodi:role="line">2</tspan></text>
      <path
         inkscape:export-ydpi="90"
         inkscape:export-xdpi="90"
         inkscape:export-filename="/home/vinicius/doc/qa/qb55d-capa/glicerol.png"
         id="path2397"
         d="M 20.211562,77.304396 C 20.211562,95.645645 20.52779,95.645645 20.52779,95.645645"
         style="fill:none;fill-rule:evenodd;stroke:#000000;stroke-width:0.31305015px;stroke-linecap:butt;stroke-linejoin:miter;stroke-opacity:1" />
      <text
         inkscape:export-ydpi="90"
         inkscape:export-xdpi="90"
         inkscape:export-filename="/home/vinicius/doc/qa/qb55d-capa/glicerol.png"
         xml:space="preserve"
         style="font-size:12.52200603px;font-style:normal;font-weight:bold;fill:#000000;fill-opacity:1;stroke:none;stroke-width:1px;stroke-linecap:butt;stroke-linejoin:miter;stroke-opacity:1;font-family:Bitstream Vera Sans;-inkscape-font-specification:Sans Bold"
         x="9.776021"
         y="109.16559"
         id="text2401"><tspan
           sodipodi:role="line"
           id="tspan2403"
           x="9.776021"
           y="109.16559">CH</tspan></text>
      <path
         inkscape:export-ydpi="90"
         inkscape:export-xdpi="90"
         inkscape:export-filename="/home/vinicius/doc/qa/qb55d-capa/glicerol.png"
         style="fill:none;fill-rule:evenodd;stroke:#000000;stroke-width:0.31305015px;stroke-linecap:butt;stroke-linejoin:miter;stroke-opacity:1"
         d="M 20.211562,116.12261 C 20.211562,134.46386 20.52779,134.46386 20.52779,134.46386"
         id="path2409" />
      <text
         inkscape:export-ydpi="90"
         inkscape:export-xdpi="90"
         inkscape:export-filename="/home/vinicius/doc/qa/qb55d-capa/glicerol.png"
         xml:space="preserve"
         style="font-size:12.52200603px;font-style:normal;font-weight:bold;fill:#000000;fill-opacity:1;stroke:none;stroke-width:1px;stroke-linecap:butt;stroke-linejoin:miter;stroke-opacity:1;font-family:Bitstream Vera Sans;-inkscape-font-specification:Sans Bold"
         x="9.776021"
         y="147.19087"
         id="text2413"><tspan
           sodipodi:role="line"
           id="tspan2415"
           x="9.776021"
           y="147.19087">CH</tspan></text>
      <text
         inkscape:export-ydpi="90"
         inkscape:export-xdpi="90"
         inkscape:export-filename="/home/vinicius/doc/qa/qb55d-capa/glicerol.png"
         xml:space="preserve"
         style="font-size:12.52200603px;font-style:normal;font-weight:bold;fill:#000000;fill-opacity:1;stroke:none;stroke-width:1px;stroke-linecap:butt;stroke-linejoin:miter;stroke-opacity:1;font-family:Bitstream Vera Sans;-inkscape-font-specification:Sans Bold"
         x="29.375828"
         y="149.06918"
         id="text2417"><tspan
           sodipodi:role="line"
           id="tspan2419"
           x="29.375828"
           y="149.06918"
           style="font-size:6.26100302px">2</tspan></text>
      <path
         inkscape:export-ydpi="90"
         inkscape:export-xdpi="90"
         inkscape:export-filename="/home/vinicius/doc/qa/qb55d-capa/glicerol.png"
         style="fill:none;fill-rule:evenodd;stroke:#000000;stroke-width:0.31305015px;stroke-linecap:butt;stroke-linejoin:miter;stroke-opacity:1"
         d="M 37.446009,66.394517 C 55.787257,66.394517 55.787257,66.078289 55.787257,66.078289"
         id="path2421" />
      <path
         inkscape:export-ydpi="90"
         inkscape:export-xdpi="90"
         inkscape:export-filename="/home/vinicius/doc/qa/qb55d-capa/glicerol.png"
         id="path2423"
         d="M 37.446009,104.58664 C 55.787257,104.58664 55.787257,104.27041 55.787257,104.27041"
         style="fill:none;fill-rule:evenodd;stroke:#000000;stroke-width:0.31305015px;stroke-linecap:butt;stroke-linejoin:miter;stroke-opacity:1" />
      <path
         inkscape:export-ydpi="90"
         inkscape:export-xdpi="90"
         inkscape:export-filename="/home/vinicius/doc/qa/qb55d-capa/glicerol.png"
         style="fill:none;fill-rule:evenodd;stroke:#000000;stroke-width:0.31305015px;stroke-linecap:butt;stroke-linejoin:miter;stroke-opacity:1"
         d="M 37.446009,142.15265 C 55.787257,142.15265 55.787257,141.83643 55.787257,141.83643"
         id="path2425" />
      <text
         inkscape:export-ydpi="90"
         inkscape:export-xdpi="90"
         inkscape:export-filename="/home/vinicius/doc/qa/qb55d-capa/glicerol.png"
         xml:space="preserve"
         style="font-size:12.52200603px;font-style:normal;font-weight:bold;fill:#000000;fill-opacity:1;stroke:none;stroke-width:1px;stroke-linecap:butt;stroke-linejoin:miter;stroke-opacity:1;font-family:Bitstream Vera Sans;-inkscape-font-specification:Sans Bold"
         x="59.237949"
         y="70.347374"
         id="text2429"><tspan
           sodipodi:role="line"
           id="tspan2431"
           x="59.237949"
           y="70.347374">O</tspan></text>
      <text
         inkscape:export-ydpi="90"
         inkscape:export-xdpi="90"
         inkscape:export-filename="/home/vinicius/doc/qa/qb55d-capa/glicerol.png"
         id="text2437"
         y="109.16559"
         x="59.237949"
         style="font-size:12.52200603px;font-style:normal;font-weight:bold;fill:#000000;fill-opacity:1;stroke:none;stroke-width:1px;stroke-linecap:butt;stroke-linejoin:miter;stroke-opacity:1;font-family:Bitstream Vera Sans;-inkscape-font-specification:Sans Bold"
         xml:space="preserve"><tspan
           y="109.16559"
           x="59.237949"
           id="tspan2439"
           sodipodi:role="line">O</tspan></text>
      <text
         inkscape:export-ydpi="90"
         inkscape:export-xdpi="90"
         inkscape:export-filename="/home/vinicius/doc/qa/qb55d-capa/glicerol.png"
         xml:space="preserve"
         style="font-size:12.52200603px;font-style:normal;font-weight:bold;fill:#000000;fill-opacity:1;stroke:none;stroke-width:1px;stroke-linecap:butt;stroke-linejoin:miter;stroke-opacity:1;font-family:Bitstream Vera Sans;-inkscape-font-specification:Sans Bold"
         x="59.237949"
         y="146.73163"
         id="text2441"><tspan
           sodipodi:role="line"
           id="tspan2443"
           x="59.237949"
           y="146.73163">O</tspan></text>
      <path
         inkscape:export-ydpi="90"
         inkscape:export-xdpi="90"
         inkscape:export-filename="/home/vinicius/doc/qa/qb55d-capa/glicerol.png"
         id="path2445"
         d="M 74.385926,66.394517 C 92.727174,66.394517 92.727174,66.078289 92.727174,66.078289"
         style="fill:none;fill-rule:evenodd;stroke:#000000;stroke-width:0.31305015px;stroke-linecap:butt;stroke-linejoin:miter;stroke-opacity:1" />
      <path
         inkscape:export-ydpi="90"
         inkscape:export-xdpi="90"
         inkscape:export-filename="/home/vinicius/doc/qa/qb55d-capa/glicerol.png"
         style="fill:none;fill-rule:evenodd;stroke:#000000;stroke-width:0.31305015px;stroke-linecap:butt;stroke-linejoin:miter;stroke-opacity:1"
         d="M 74.385926,104.58664 C 92.727174,104.58664 92.727174,104.27041 92.727174,104.27041"
         id="path2447" />
      <path
         inkscape:export-ydpi="90"
         inkscape:export-xdpi="90"
         inkscape:export-filename="/home/vinicius/doc/qa/qb55d-capa/glicerol.png"
         id="path2449"
         d="M 74.385926,142.15265 C 92.727174,142.15265 92.727174,141.83643 92.727174,141.83643"
         style="fill:none;fill-rule:evenodd;stroke:#000000;stroke-width:0.31305015px;stroke-linecap:butt;stroke-linejoin:miter;stroke-opacity:1" />
      <text
         inkscape:export-ydpi="90"
         inkscape:export-xdpi="90"
         inkscape:export-filename="/home/vinicius/doc/qa/qb55d-capa/glicerol.png"
         id="text2453"
         y="70.347374"
         x="95.551765"
         style="font-size:12.52200603px;font-style:normal;font-weight:bold;fill:#000000;fill-opacity:1;stroke:none;stroke-width:1px;stroke-linecap:butt;stroke-linejoin:miter;stroke-opacity:1;font-family:Bitstream Vera Sans;-inkscape-font-specification:Sans Bold"
         xml:space="preserve"><tspan
           y="70.347374"
           x="95.551765"
           id="tspan2455"
           sodipodi:role="line">OC</tspan></text>
      <text
         inkscape:export-ydpi="90"
         inkscape:export-xdpi="90"
         inkscape:export-filename="/home/vinicius/doc/qa/qb55d-capa/glicerol.png"
         xml:space="preserve"
         style="font-size:12.52200603px;font-style:normal;font-weight:bold;fill:#000000;fill-opacity:1;stroke:none;stroke-width:1px;stroke-linecap:butt;stroke-linejoin:miter;stroke-opacity:1;font-family:Bitstream Vera Sans;-inkscape-font-specification:Sans Bold"
         x="95.551765"
         y="109.16559"
         id="text2457"><tspan
           sodipodi:role="line"
           id="tspan2459"
           x="95.551765"
           y="109.16559">OC</tspan></text>
      <text
         inkscape:export-ydpi="90"
         inkscape:export-xdpi="90"
         inkscape:export-filename="/home/vinicius/doc/qa/qb55d-capa/glicerol.png"
         id="text2461"
         y="146.73163"
         x="95.551765"
         style="font-size:12.52200603px;font-style:normal;font-weight:bold;fill:#000000;fill-opacity:1;stroke:none;stroke-width:1px;stroke-linecap:butt;stroke-linejoin:miter;stroke-opacity:1;font-family:Bitstream Vera Sans;-inkscape-font-specification:Sans Bold"
         xml:space="preserve"><tspan
           y="146.73163"
           x="95.551765"
           id="tspan2463"
           sodipodi:role="line">OC</tspan></text>
      <text
         inkscape:export-ydpi="90"
         inkscape:export-xdpi="90"
         inkscape:export-filename="/home/vinicius/doc/qa/qb55d-capa/glicerol.png"
         xml:space="preserve"
         style="font-size:12.52200603px;font-style:normal;font-weight:bold;fill:#000000;fill-opacity:1;stroke:none;stroke-width:1px;stroke-linecap:butt;stroke-linejoin:miter;stroke-opacity:1;font-family:Bitstream Vera Sans;-inkscape-font-specification:Sans Bold"
         x="141.25708"
         y="70.347374"
         id="text2497"><tspan
           sodipodi:role="line"
           id="tspan2499"
           x="141.25708"
           y="70.347374">(CH )   CH</tspan></text>
      <text
         inkscape:export-ydpi="90"
         inkscape:export-xdpi="90"
         inkscape:export-filename="/home/vinicius/doc/qa/qb55d-capa/glicerol.png"
         id="text2467"
         y="70.347374"
         x="59.237949"
         style="font-size:12.52200603px;font-style:normal;font-weight:bold;fill:#000000;fill-opacity:1;stroke:none;stroke-width:1px;stroke-linecap:butt;stroke-linejoin:miter;stroke-opacity:1;font-family:Bitstream Vera Sans;-inkscape-font-specification:Sans Bold"
         xml:space="preserve"><tspan
           y="70.347374"
           x="59.237949"
           id="tspan2469"
           sodipodi:role="line">O</tspan></text>
      <text
         inkscape:export-ydpi="90"
         inkscape:export-xdpi="90"
         inkscape:export-filename="/home/vinicius/doc/qa/qb55d-capa/glicerol.png"
         xml:space="preserve"
         style="font-size:12.52200603px;font-style:normal;font-weight:bold;fill:#000000;fill-opacity:1;stroke:none;stroke-width:1px;stroke-linecap:butt;stroke-linejoin:miter;stroke-opacity:1;font-family:Bitstream Vera Sans;-inkscape-font-specification:Sans Bold"
         x="59.237949"
         y="109.16559"
         id="text2471"><tspan
           sodipodi:role="line"
           id="tspan2473"
           x="59.237949"
           y="109.16559">O</tspan></text>
      <text
         inkscape:export-ydpi="90"
         inkscape:export-xdpi="90"
         inkscape:export-filename="/home/vinicius/doc/qa/qb55d-capa/glicerol.png"
         id="text2475"
         y="146.73163"
         x="59.237949"
         style="font-size:12.52200603px;font-style:normal;font-weight:bold;fill:#000000;fill-opacity:1;stroke:none;stroke-width:1px;stroke-linecap:butt;stroke-linejoin:miter;stroke-opacity:1;font-family:Bitstream Vera Sans;-inkscape-font-specification:Sans Bold"
         xml:space="preserve"><tspan
           y="146.73163"
           x="59.237949"
           id="tspan2477"
           sodipodi:role="line">O</tspan></text>
      <path
         inkscape:export-ydpi="90"
         inkscape:export-xdpi="90"
         inkscape:export-filename="/home/vinicius/doc/qa/qb55d-capa/glicerol.png"
         style="fill:none;fill-rule:evenodd;stroke:#000000;stroke-width:0.31305015px;stroke-linecap:butt;stroke-linejoin:miter;stroke-opacity:1"
         d="M 74.385926,66.394517 C 92.727174,66.394517 92.727174,66.078289 92.727174,66.078289"
         id="path2479" />
      <path
         inkscape:export-ydpi="90"
         inkscape:export-xdpi="90"
         inkscape:export-filename="/home/vinicius/doc/qa/qb55d-capa/glicerol.png"
         id="path2481"
         d="M 74.385926,104.58664 C 92.727174,104.58664 92.727174,104.27041 92.727174,104.27041"
         style="fill:none;fill-rule:evenodd;stroke:#000000;stroke-width:0.31305015px;stroke-linecap:butt;stroke-linejoin:miter;stroke-opacity:1" />
      <path
         inkscape:export-ydpi="90"
         inkscape:export-xdpi="90"
         inkscape:export-filename="/home/vinicius/doc/qa/qb55d-capa/glicerol.png"
         style="fill:none;fill-rule:evenodd;stroke:#000000;stroke-width:0.31305015px;stroke-linecap:butt;stroke-linejoin:miter;stroke-opacity:1"
         d="M 74.385926,142.15265 C 92.727174,142.15265 92.727174,141.83643 92.727174,141.83643"
         id="path2483" />
      <path
         inkscape:export-ydpi="90"
         inkscape:export-xdpi="90"
         inkscape:export-filename="/home/vinicius/doc/qa/qb55d-capa/glicerol.png"
         style="fill:none;fill-rule:evenodd;stroke:#000000;stroke-width:0.31305015px;stroke-linecap:butt;stroke-linejoin:miter;stroke-opacity:1"
         d="M 120.09125,66.394517 C 138.4325,66.394517 138.4325,66.078289 138.4325,66.078289"
         id="path2485" />
      <path
         inkscape:export-ydpi="90"
         inkscape:export-xdpi="90"
         inkscape:export-filename="/home/vinicius/doc/qa/qb55d-capa/glicerol.png"
         id="path2487"
         d="M 120.09125,104.58664 C 138.4325,104.58664 138.4325,104.27041 138.4325,104.27041"
         style="fill:none;fill-rule:evenodd;stroke:#000000;stroke-width:0.31305015px;stroke-linecap:butt;stroke-linejoin:miter;stroke-opacity:1" />
      <path
         inkscape:export-ydpi="90"
         inkscape:export-xdpi="90"
         inkscape:export-filename="/home/vinicius/doc/qa/qb55d-capa/glicerol.png"
         style="fill:none;fill-rule:evenodd;stroke:#000000;stroke-width:0.31305015px;stroke-linecap:butt;stroke-linejoin:miter;stroke-opacity:1"
         d="M 120.09125,142.15265 C 138.4325,142.15265 138.4325,141.83643 138.4325,141.83643"
         id="path2489" />
      <path
         inkscape:export-ydpi="90"
         inkscape:export-xdpi="90"
         inkscape:export-filename="/home/vinicius/doc/qa/qb55d-capa/glicerol.png"
         id="path2491"
         d="M 120.09125,66.394517 C 138.4325,66.394517 138.4325,66.078289 138.4325,66.078289"
         style="fill:none;fill-rule:evenodd;stroke:#000000;stroke-width:0.31305015px;stroke-linecap:butt;stroke-linejoin:miter;stroke-opacity:1" />
      <path
         inkscape:export-ydpi="90"
         inkscape:export-xdpi="90"
         inkscape:export-filename="/home/vinicius/doc/qa/qb55d-capa/glicerol.png"
         style="fill:none;fill-rule:evenodd;stroke:#000000;stroke-width:0.31305015px;stroke-linecap:butt;stroke-linejoin:miter;stroke-opacity:1"
         d="M 120.09125,104.58664 C 138.4325,104.58664 138.4325,104.27041 138.4325,104.27041"
         id="path2493" />
      <path
         inkscape:export-ydpi="90"
         inkscape:export-xdpi="90"
         inkscape:export-filename="/home/vinicius/doc/qa/qb55d-capa/glicerol.png"
         id="path2495"
         d="M 120.09125,142.15265 C 138.4325,142.15265 138.4325,141.83643 138.4325,141.83643"
         style="fill:none;fill-rule:evenodd;stroke:#000000;stroke-width:0.31305015px;stroke-linecap:butt;stroke-linejoin:miter;stroke-opacity:1" />
      <text
         inkscape:export-ydpi="90"
         inkscape:export-xdpi="90"
         inkscape:export-filename="/home/vinicius/doc/qa/qb55d-capa/glicerol.png"
         xml:space="preserve"
         style="font-size:12.52200603px;font-style:normal;font-weight:bold;fill:#000000;fill-opacity:1;stroke:none;stroke-width:1px;stroke-linecap:butt;stroke-linejoin:miter;stroke-opacity:1;font-family:Bitstream Vera Sans;-inkscape-font-specification:Sans Bold"
         x="166.42813"
         y="72.945992"
         id="text2517"><tspan
           sodipodi:role="line"
           id="tspan2519"
           x="166.42813"
           y="72.945992"
           style="font-size:6.26100302px">2</tspan></text>
      <text
         inkscape:export-ydpi="90"
         inkscape:export-xdpi="90"
         inkscape:export-filename="/home/vinicius/doc/qa/qb55d-capa/glicerol.png"
         id="text2521"
         y="72.945992"
         x="176.44574"
         style="font-size:12.52200603px;font-style:normal;font-weight:bold;fill:#000000;fill-opacity:1;stroke:none;stroke-width:1px;stroke-linecap:butt;stroke-linejoin:miter;stroke-opacity:1;font-family:Bitstream Vera Sans;-inkscape-font-specification:Sans Bold"
         xml:space="preserve"><tspan
           style="font-size:6.26100302px"
           y="72.945992"
           x="176.44574"
           id="tspan2523"
           sodipodi:role="line">14</tspan></text>
      <text
         inkscape:export-ydpi="90"
         inkscape:export-xdpi="90"
         inkscape:export-filename="/home/vinicius/doc/qa/qb55d-capa/glicerol.png"
         xml:space="preserve"
         style="font-size:12.52200603px;font-style:normal;font-weight:bold;fill:#000000;fill-opacity:1;stroke:none;stroke-width:1px;stroke-linecap:butt;stroke-linejoin:miter;stroke-opacity:1;font-family:Bitstream Vera Sans;-inkscape-font-specification:Sans Bold"
         x="210.25516"
         y="72.945992"
         id="text2525"><tspan
           sodipodi:role="line"
           id="tspan2527"
           x="210.25516"
           y="72.945992"
           style="font-size:6.26100302px">3</tspan></text>
      <text
         inkscape:export-ydpi="90"
         inkscape:export-xdpi="90"
         inkscape:export-filename="/home/vinicius/doc/qa/qb55d-capa/glicerol.png"
         id="text2579"
         y="107.91339"
         x="141.25708"
         style="font-size:12.52200603px;font-style:normal;font-weight:bold;fill:#000000;fill-opacity:1;stroke:none;stroke-width:1px;stroke-linecap:butt;stroke-linejoin:miter;stroke-opacity:1;font-family:Bitstream Vera Sans;-inkscape-font-specification:Sans Bold"
         xml:space="preserve"><tspan
           y="107.91339"
           x="141.25708"
           id="tspan2581"
           sodipodi:role="line">(CH )   CH</tspan></text>
      <text
         inkscape:export-ydpi="90"
         inkscape:export-xdpi="90"
         inkscape:export-filename="/home/vinicius/doc/qa/qb55d-capa/glicerol.png"
         id="text2583"
         y="110.51201"
         x="166.42813"
         style="font-size:12.52200603px;font-style:normal;font-weight:bold;fill:#000000;fill-opacity:1;stroke:none;stroke-width:1px;stroke-linecap:butt;stroke-linejoin:miter;stroke-opacity:1;font-family:Bitstream Vera Sans;-inkscape-font-specification:Sans Bold"
         xml:space="preserve"><tspan
           style="font-size:6.26100302px"
           y="110.51201"
           x="166.42813"
           id="tspan2585"
           sodipodi:role="line">2</tspan></text>
      <text
         inkscape:export-ydpi="90"
         inkscape:export-xdpi="90"
         inkscape:export-filename="/home/vinicius/doc/qa/qb55d-capa/glicerol.png"
         xml:space="preserve"
         style="font-size:12.52200603px;font-style:normal;font-weight:bold;fill:#000000;fill-opacity:1;stroke:none;stroke-width:1px;stroke-linecap:butt;stroke-linejoin:miter;stroke-opacity:1;font-family:Bitstream Vera Sans;-inkscape-font-specification:Sans Bold"
         x="176.44574"
         y="110.51201"
         id="text2587"><tspan
           sodipodi:role="line"
           id="tspan2589"
           x="176.44574"
           y="110.51201"
           style="font-size:6.26100302px">14</tspan></text>
      <text
         inkscape:export-ydpi="90"
         inkscape:export-xdpi="90"
         inkscape:export-filename="/home/vinicius/doc/qa/qb55d-capa/glicerol.png"
         id="text2591"
         y="110.51201"
         x="210.25516"
         style="font-size:12.52200603px;font-style:normal;font-weight:bold;fill:#000000;fill-opacity:1;stroke:none;stroke-width:1px;stroke-linecap:butt;stroke-linejoin:miter;stroke-opacity:1;font-family:Bitstream Vera Sans;-inkscape-font-specification:Sans Bold"
         xml:space="preserve"><tspan
           style="font-size:6.26100302px"
           y="110.51201"
           x="210.25516"
           id="tspan2593"
           sodipodi:role="line">3</tspan></text>
      <text
         inkscape:export-ydpi="90"
         inkscape:export-xdpi="90"
         inkscape:export-filename="/home/vinicius/doc/qa/qb55d-capa/glicerol.png"
         xml:space="preserve"
         style="font-size:12.52200603px;font-style:normal;font-weight:bold;fill:#000000;fill-opacity:1;stroke:none;stroke-width:1px;stroke-linecap:butt;stroke-linejoin:miter;stroke-opacity:1;font-family:Bitstream Vera Sans;-inkscape-font-specification:Sans Bold"
         x="141.25708"
         y="145.47942"
         id="text2595"><tspan
           sodipodi:role="line"
           id="tspan2597"
           x="141.25708"
           y="145.47942">(CH )   CH</tspan></text>
      <text
         inkscape:export-ydpi="90"
         inkscape:export-xdpi="90"
         inkscape:export-filename="/home/vinicius/doc/qa/qb55d-capa/glicerol.png"
         xml:space="preserve"
         style="font-size:12.52200603px;font-style:normal;font-weight:bold;fill:#000000;fill-opacity:1;stroke:none;stroke-width:1px;stroke-linecap:butt;stroke-linejoin:miter;stroke-opacity:1;font-family:Bitstream Vera Sans;-inkscape-font-specification:Sans Bold"
         x="166.42813"
         y="148.07802"
         id="text2599"><tspan
           sodipodi:role="line"
           id="tspan2601"
           x="166.42813"
           y="148.07802"
           style="font-size:6.26100302px">2</tspan></text>
      <text
         inkscape:export-ydpi="90"
         inkscape:export-xdpi="90"
         inkscape:export-filename="/home/vinicius/doc/qa/qb55d-capa/glicerol.png"
         id="text2603"
         y="148.07802"
         x="176.44574"
         style="font-size:12.52200603px;font-style:normal;font-weight:bold;fill:#000000;fill-opacity:1;stroke:none;stroke-width:1px;stroke-linecap:butt;stroke-linejoin:miter;stroke-opacity:1;font-family:Bitstream Vera Sans;-inkscape-font-specification:Sans Bold"
         xml:space="preserve"><tspan
           style="font-size:6.26100302px"
           y="148.07802"
           x="176.44574"
           id="tspan2605"
           sodipodi:role="line">14</tspan></text>
      <text
         inkscape:export-ydpi="90"
         inkscape:export-xdpi="90"
         inkscape:export-filename="/home/vinicius/doc/qa/qb55d-capa/glicerol.png"
         xml:space="preserve"
         style="font-size:12.52200603px;font-style:normal;font-weight:bold;fill:#000000;fill-opacity:1;stroke:none;stroke-width:1px;stroke-linecap:butt;stroke-linejoin:miter;stroke-opacity:1;font-family:Bitstream Vera Sans;-inkscape-font-specification:Sans Bold"
         x="210.25516"
         y="148.07802"
         id="text2607"><tspan
           sodipodi:role="line"
           id="tspan2609"
           x="210.25516"
           y="148.07802"
           style="font-size:6.26100302px">3</tspan></text>
      <text
         inkscape:export-ydpi="90"
         inkscape:export-xdpi="90"
         inkscape:export-filename="/home/vinicius/doc/qa/qb55d-capa/glicerol.png"
         id="text2611"
         y="201.56697"
         x="102.21525"
         style="font-size:12.52200603px;font-style:normal;font-weight:bold;fill:#000000;fill-opacity:1;stroke:none;stroke-width:1px;stroke-linecap:butt;stroke-linejoin:miter;stroke-opacity:1;font-family:Bitstream Vera Sans;-inkscape-font-specification:Sans Bold"
         xml:space="preserve"><tspan
           y="201.56697"
           x="102.21525"
           id="tspan2613"
           sodipodi:role="line">+</tspan></text>
      <text
         inkscape:export-ydpi="90"
         inkscape:export-xdpi="90"
         inkscape:export-filename="/home/vinicius/doc/qa/qb55d-capa/glicerol.png"
         id="text2615"
         y="221.24443"
         x="87.367722"
         style="font-size:12.52200603px;font-style:normal;font-weight:bold;fill:#000000;fill-opacity:1;stroke:none;stroke-width:1px;stroke-linecap:butt;stroke-linejoin:miter;stroke-opacity:1;font-family:Bitstream Vera Sans;-inkscape-font-specification:Sans Bold"
         xml:space="preserve"><tspan
           y="221.24443"
           x="87.367722"
           id="tspan2617"
           sodipodi:role="line">NaOH</tspan></text>
      <path
         inkscape:export-ydpi="90"
         inkscape:export-xdpi="90"
         inkscape:export-filename="/home/vinicius/doc/qa/qb55d-capa/glicerol.png"
         id="path4169"
         d="M 106.25042,249.49698 C 106.25042,276.06017 106.25042,276.06017 106.25042,276.06017"
         style="fill:none;fill-rule:evenodd;stroke:#000000;stroke-width:0.31305015px;stroke-linecap:butt;stroke-linejoin:miter;marker-end:url(#Arrow1Lend);stroke-opacity:1" />
      <text
         inkscape:export-ydpi="90"
         inkscape:export-xdpi="90"
         inkscape:export-filename="/home/vinicius/doc/qa/qb55d-capa/glicerol.png"
         id="text4688"
         y="294.47247"
         x="75.251366"
         style="font-size:12.52200603px;font-style:normal;font-weight:bold;fill:#000000;fill-opacity:1;stroke:none;stroke-width:1px;stroke-linecap:butt;stroke-linejoin:miter;stroke-opacity:1;font-family:Bitstream Vera Sans;-inkscape-font-specification:Sans Bold"
         xml:space="preserve"><tspan
           y="294.47247"
           x="75.251366"
           id="tspan4690"
           sodipodi:role="line">CH</tspan></text>
      <text
         inkscape:export-ydpi="90"
         inkscape:export-xdpi="90"
         inkscape:export-filename="/home/vinicius/doc/qa/qb55d-capa/glicerol.png"
         id="text4692"
         y="296.35077"
         x="94.851166"
         style="font-size:12.52200603px;font-style:normal;font-weight:bold;fill:#000000;fill-opacity:1;stroke:none;stroke-width:1px;stroke-linecap:butt;stroke-linejoin:miter;stroke-opacity:1;font-family:Bitstream Vera Sans;-inkscape-font-specification:Sans Bold"
         xml:space="preserve"><tspan
           style="font-size:6.26100302px"
           y="296.35077"
           x="94.851166"
           id="tspan4694"
           sodipodi:role="line">2</tspan></text>
      <path
         inkscape:export-ydpi="90"
         inkscape:export-xdpi="90"
         inkscape:export-filename="/home/vinicius/doc/qa/qb55d-capa/glicerol.png"
         id="path4696"
         d="M 85.686902,301.4295 C 85.686902,319.77074 86.00313,319.77074 86.00313,319.77074"
         style="fill:none;fill-rule:evenodd;stroke:#000000;stroke-width:0.31305015px;stroke-linecap:butt;stroke-linejoin:miter;stroke-opacity:1" />
      <text
         inkscape:export-ydpi="90"
         inkscape:export-xdpi="90"
         inkscape:export-filename="/home/vinicius/doc/qa/qb55d-capa/glicerol.png"
         xml:space="preserve"
         style="font-size:12.52200603px;font-style:normal;font-weight:bold;fill:#000000;fill-opacity:1;stroke:none;stroke-width:1px;stroke-linecap:butt;stroke-linejoin:miter;stroke-opacity:1;font-family:Bitstream Vera Sans;-inkscape-font-specification:Sans Bold"
         x="75.251366"
         y="333.29068"
         id="text4698"><tspan
           sodipodi:role="line"
           id="tspan4700"
           x="75.251366"
           y="333.29068">CH</tspan></text>
      <path
         inkscape:export-ydpi="90"
         inkscape:export-xdpi="90"
         inkscape:export-filename="/home/vinicius/doc/qa/qb55d-capa/glicerol.png"
         style="fill:none;fill-rule:evenodd;stroke:#000000;stroke-width:0.31305015px;stroke-linecap:butt;stroke-linejoin:miter;stroke-opacity:1"
         d="M 85.686902,340.24773 C 85.686902,358.58896 86.00313,358.58896 86.00313,358.58896"
         id="path4702" />
      <text
         inkscape:export-ydpi="90"
         inkscape:export-xdpi="90"
         inkscape:export-filename="/home/vinicius/doc/qa/qb55d-capa/glicerol.png"
         xml:space="preserve"
         style="font-size:12.52200603px;font-style:normal;font-weight:bold;fill:#000000;fill-opacity:1;stroke:none;stroke-width:1px;stroke-linecap:butt;stroke-linejoin:miter;stroke-opacity:1;font-family:Bitstream Vera Sans;-inkscape-font-specification:Sans Bold"
         x="75.251366"
         y="371.31601"
         id="text4704"><tspan
           sodipodi:role="line"
           id="tspan4706"
           x="75.251366"
           y="371.31601">CH</tspan></text>
      <text
         inkscape:export-ydpi="90"
         inkscape:export-xdpi="90"
         inkscape:export-filename="/home/vinicius/doc/qa/qb55d-capa/glicerol.png"
         xml:space="preserve"
         style="font-size:12.52200603px;font-style:normal;font-weight:bold;fill:#000000;fill-opacity:1;stroke:none;stroke-width:1px;stroke-linecap:butt;stroke-linejoin:miter;stroke-opacity:1;font-family:Bitstream Vera Sans;-inkscape-font-specification:Sans Bold"
         x="94.851166"
         y="373.19431"
         id="text4708"><tspan
           sodipodi:role="line"
           id="tspan4710"
           x="94.851166"
           y="373.19431"
           style="font-size:6.26100302px">2</tspan></text>
      <path
         inkscape:export-ydpi="90"
         inkscape:export-xdpi="90"
         inkscape:export-filename="/home/vinicius/doc/qa/qb55d-capa/glicerol.png"
         style="fill:none;fill-rule:evenodd;stroke:#000000;stroke-width:0.31305015px;stroke-linecap:butt;stroke-linejoin:miter;stroke-opacity:1"
         d="M 102.92135,290.51962 C 121.2626,290.51962 121.2626,290.20339 121.2626,290.20339"
         id="path4712" />
      <path
         inkscape:export-ydpi="90"
         inkscape:export-xdpi="90"
         inkscape:export-filename="/home/vinicius/doc/qa/qb55d-capa/glicerol.png"
         id="path4714"
         d="M 102.92135,328.71173 C 121.2626,328.71173 121.2626,328.39552 121.2626,328.39552"
         style="fill:none;fill-rule:evenodd;stroke:#000000;stroke-width:0.31305015px;stroke-linecap:butt;stroke-linejoin:miter;stroke-opacity:1" />
      <path
         inkscape:export-ydpi="90"
         inkscape:export-xdpi="90"
         inkscape:export-filename="/home/vinicius/doc/qa/qb55d-capa/glicerol.png"
         style="fill:none;fill-rule:evenodd;stroke:#000000;stroke-width:0.31305015px;stroke-linecap:butt;stroke-linejoin:miter;stroke-opacity:1"
         d="M 102.92135,366.27776 C 121.2626,366.27776 121.2626,365.96154 121.2626,365.96154"
         id="path4716" />
      <text
         inkscape:export-ydpi="90"
         inkscape:export-xdpi="90"
         inkscape:export-filename="/home/vinicius/doc/qa/qb55d-capa/glicerol.png"
         xml:space="preserve"
         style="font-size:12.52200603px;font-style:normal;font-weight:bold;fill:#000000;fill-opacity:1;stroke:none;stroke-width:1px;stroke-linecap:butt;stroke-linejoin:miter;stroke-opacity:1;font-family:Bitstream Vera Sans;-inkscape-font-specification:Sans Bold"
         x="124.71329"
         y="294.47247"
         id="text4718"><tspan
           sodipodi:role="line"
           id="tspan4720"
           x="124.71329"
           y="294.47247">O</tspan></text>
      <text
         inkscape:export-ydpi="90"
         inkscape:export-xdpi="90"
         inkscape:export-filename="/home/vinicius/doc/qa/qb55d-capa/glicerol.png"
         id="text4722"
         y="333.29068"
         x="124.71329"
         style="font-size:12.52200603px;font-style:normal;font-weight:bold;fill:#000000;fill-opacity:1;stroke:none;stroke-width:1px;stroke-linecap:butt;stroke-linejoin:miter;stroke-opacity:1;font-family:Bitstream Vera Sans;-inkscape-font-specification:Sans Bold"
         xml:space="preserve"><tspan
           y="333.29068"
           x="124.71329"
           id="tspan4724"
           sodipodi:role="line">O</tspan></text>
      <text
         inkscape:export-ydpi="90"
         inkscape:export-xdpi="90"
         inkscape:export-filename="/home/vinicius/doc/qa/qb55d-capa/glicerol.png"
         xml:space="preserve"
         style="font-size:12.52200603px;font-style:normal;font-weight:bold;fill:#000000;fill-opacity:1;stroke:none;stroke-width:1px;stroke-linecap:butt;stroke-linejoin:miter;stroke-opacity:1;font-family:Bitstream Vera Sans;-inkscape-font-specification:Sans Bold"
         x="124.71329"
         y="370.85675"
         id="text4726"><tspan
           sodipodi:role="line"
           id="tspan4728"
           x="124.71329"
           y="370.85675">O</tspan></text>
      <text
         inkscape:export-ydpi="90"
         inkscape:export-xdpi="90"
         inkscape:export-filename="/home/vinicius/doc/qa/qb55d-capa/glicerol.png"
         id="text4730"
         y="294.47247"
         x="124.71329"
         style="font-size:12.52200603px;font-style:normal;font-weight:bold;fill:#000000;fill-opacity:1;stroke:none;stroke-width:1px;stroke-linecap:butt;stroke-linejoin:miter;stroke-opacity:1;font-family:Bitstream Vera Sans;-inkscape-font-specification:Sans Bold"
         xml:space="preserve"><tspan
           y="294.47247"
           x="124.71329"
           id="tspan4732"
           sodipodi:role="line">OH</tspan></text>
      <text
         inkscape:export-ydpi="90"
         inkscape:export-xdpi="90"
         inkscape:export-filename="/home/vinicius/doc/qa/qb55d-capa/glicerol.png"
         xml:space="preserve"
         style="font-size:12.52200603px;font-style:normal;font-weight:bold;fill:#000000;fill-opacity:1;stroke:none;stroke-width:1px;stroke-linecap:butt;stroke-linejoin:miter;stroke-opacity:1;font-family:Bitstream Vera Sans;-inkscape-font-specification:Sans Bold"
         x="124.71329"
         y="333.29068"
         id="text4734"><tspan
           sodipodi:role="line"
           id="tspan4736"
           x="124.71329"
           y="333.29068">OH</tspan></text>
      <text
         inkscape:export-ydpi="90"
         inkscape:export-xdpi="90"
         inkscape:export-filename="/home/vinicius/doc/qa/qb55d-capa/glicerol.png"
         id="text4738"
         y="370.85675"
         x="124.71329"
         style="font-size:12.52200603px;font-style:normal;font-weight:bold;fill:#000000;fill-opacity:1;stroke:none;stroke-width:1px;stroke-linecap:butt;stroke-linejoin:miter;stroke-opacity:1;font-family:Bitstream Vera Sans;-inkscape-font-specification:Sans Bold"
         xml:space="preserve"><tspan
           y="370.85675"
           x="124.71329"
           id="tspan4740"
           sodipodi:role="line">OH</tspan></text>
      <text
         inkscape:export-ydpi="90"
         inkscape:export-xdpi="90"
         inkscape:export-filename="/home/vinicius/doc/qa/qb55d-capa/glicerol.png"
         id="text4742"
         y="433.78674"
         x="25.200411"
         style="font-size:12.52200603px;font-style:normal;font-weight:bold;fill:#000000;fill-opacity:1;stroke:none;stroke-width:1px;stroke-linecap:butt;stroke-linejoin:miter;stroke-opacity:1;font-family:Bitstream Vera Sans;-inkscape-font-specification:Sans Bold"
         xml:space="preserve"><tspan
           y="433.78674"
           x="25.200411"
           id="tspan4744"
           sodipodi:role="line">3 CH</tspan></text>
      <text
         inkscape:export-ydpi="90"
         inkscape:export-xdpi="90"
         inkscape:export-filename="/home/vinicius/doc/qa/qb55d-capa/glicerol.png"
         xml:space="preserve"
         style="font-size:12.52200603px;font-style:normal;font-weight:bold;fill:#000000;fill-opacity:1;stroke:none;stroke-width:1px;stroke-linecap:butt;stroke-linejoin:miter;stroke-opacity:1;font-family:Bitstream Vera Sans;-inkscape-font-specification:Sans Bold"
         x="88.436539"
         y="433.78674"
         id="text4746"><tspan
           sodipodi:role="line"
           id="tspan4748"
           x="88.436539"
           y="433.78674">(CH )   COO Na</tspan></text>
      <path
         inkscape:export-ydpi="90"
         inkscape:export-xdpi="90"
         inkscape:export-filename="/home/vinicius/doc/qa/qb55d-capa/glicerol.png"
         style="fill:none;fill-rule:evenodd;stroke:#000000;stroke-width:0.31305015px;stroke-linecap:butt;stroke-linejoin:miter;stroke-opacity:1"
         d="M 67.270703,429.83389 C 85.611952,429.83389 85.611952,429.51767 85.611952,429.51767"
         id="path4750" />
      <path
         inkscape:export-ydpi="90"
         inkscape:export-xdpi="90"
         inkscape:export-filename="/home/vinicius/doc/qa/qb55d-capa/glicerol.png"
         id="path4752"
         d="M 67.270703,429.83389 C 85.611952,429.83389 85.611952,429.51767 85.611952,429.51767"
         style="fill:none;fill-rule:evenodd;stroke:#000000;stroke-width:0.31305015px;stroke-linecap:butt;stroke-linejoin:miter;stroke-opacity:1" />
      <text
         inkscape:export-ydpi="90"
         inkscape:export-xdpi="90"
         inkscape:export-filename="/home/vinicius/doc/qa/qb55d-capa/glicerol.png"
         xml:space="preserve"
         style="font-size:12.52200603px;font-style:normal;font-weight:bold;fill:#000000;fill-opacity:1;stroke:none;stroke-width:1px;stroke-linecap:butt;stroke-linejoin:miter;stroke-opacity:1;font-family:Bitstream Vera Sans;-inkscape-font-specification:Sans Bold"
         x="113.60758"
         y="436.38538"
         id="text4754"><tspan
           sodipodi:role="line"
           id="tspan4756"
           x="113.60758"
           y="436.38538"
           style="font-size:6.26100302px">2</tspan></text>
      <text
         inkscape:export-ydpi="90"
         inkscape:export-xdpi="90"
         inkscape:export-filename="/home/vinicius/doc/qa/qb55d-capa/glicerol.png"
         id="text4758"
         y="436.38538"
         x="123.62519"
         style="font-size:12.52200603px;font-style:normal;font-weight:bold;fill:#000000;fill-opacity:1;stroke:none;stroke-width:1px;stroke-linecap:butt;stroke-linejoin:miter;stroke-opacity:1;font-family:Bitstream Vera Sans;-inkscape-font-specification:Sans Bold"
         xml:space="preserve"><tspan
           style="font-size:6.26100302px"
           y="436.38538"
           x="123.62519"
           id="tspan4760"
           sodipodi:role="line">14</tspan></text>
      <text
         inkscape:export-ydpi="90"
         inkscape:export-xdpi="90"
         inkscape:export-filename="/home/vinicius/doc/qa/qb55d-capa/glicerol.png"
         xml:space="preserve"
         style="font-size:12.52200603px;font-style:normal;font-weight:bold;fill:#000000;fill-opacity:1;stroke:none;stroke-width:1px;stroke-linecap:butt;stroke-linejoin:miter;stroke-opacity:1;font-family:Bitstream Vera Sans;-inkscape-font-specification:Sans Bold"
         x="167.87015"
         y="425.95621"
         id="text4762"><tspan
           sodipodi:role="line"
           id="tspan4764"
           x="167.87015"
           y="425.95621"
           style="font-size:6.26100302px">-</tspan></text>
      <text
         inkscape:export-ydpi="90"
         inkscape:export-xdpi="90"
         inkscape:export-filename="/home/vinicius/doc/qa/qb55d-capa/glicerol.png"
         xml:space="preserve"
         style="font-size:12.52200603px;font-style:normal;font-weight:bold;fill:#000000;fill-opacity:1;stroke:none;stroke-width:1px;stroke-linecap:butt;stroke-linejoin:miter;stroke-opacity:1;font-family:Bitstream Vera Sans;-inkscape-font-specification:Sans Bold"
         x="102.21525"
         y="416.29401"
         id="text4766"><tspan
           sodipodi:role="line"
           id="tspan4768"
           x="102.21525"
           y="416.29401">+</tspan></text>
      <text
         inkscape:export-ydpi="90"
         inkscape:export-xdpi="90"
         inkscape:export-filename="/home/vinicius/doc/qa/qb55d-capa/glicerol.png"
         id="text4770"
         y="436.38538"
         x="59.13686"
         style="font-size:12.52200603px;font-style:normal;font-weight:bold;fill:#000000;fill-opacity:1;stroke:none;stroke-width:1px;stroke-linecap:butt;stroke-linejoin:miter;stroke-opacity:1;font-family:Bitstream Vera Sans;-inkscape-font-specification:Sans Bold"
         xml:space="preserve"><tspan
           style="font-size:6.26100302px"
           y="436.38538"
           x="59.13686"
           id="tspan4772"
           sodipodi:role="line">3</tspan></text>
      <text
         inkscape:export-ydpi="90"
         inkscape:export-xdpi="90"
         inkscape:export-filename="/home/vinicius/doc/qa/qb55d-capa/glicerol.png"
         id="text4774"
         y="425.95621"
         x="190.40974"
         style="font-size:12.52200603px;font-style:normal;font-weight:bold;fill:#000000;fill-opacity:1;stroke:none;stroke-width:1px;stroke-linecap:butt;stroke-linejoin:miter;stroke-opacity:1;font-family:Bitstream Vera Sans;-inkscape-font-specification:Sans Bold"
         xml:space="preserve"><tspan
           style="font-size:6.26100302px"
           y="425.95621"
           x="190.40974"
           id="tspan4776"
           sodipodi:role="line">+</tspan></text>
      <text
         inkscape:export-ydpi="90"
         inkscape:export-xdpi="90"
         inkscape:export-filename="/home/vinicius/doc/qa/qb55d-capa/glicerol.png"
         id="text4778"
         y="174.5461"
         x="109.09647"
         style="font-size:12.52200603px;font-style:normal;font-weight:bold;fill:#000000;fill-opacity:1;stroke:none;stroke-width:1px;stroke-linecap:butt;stroke-linejoin:miter;stroke-opacity:1;font-family:Bitstream Vera Sans;-inkscape-font-specification:Sans Bold"
         xml:space="preserve"><tspan
           style="text-align:center;text-anchor:middle"
           y="174.5461"
           x="109.09647"
           id="tspan4780"
           sodipodi:role="line">tripalmitil-glicerol</tspan></text>
      <text
         inkscape:export-ydpi="90"
         inkscape:export-xdpi="90"
         inkscape:export-filename="/home/vinicius/doc/qa/qb55d-capa/glicerol.png"
         xml:space="preserve"
         style="font-size:12.52200603px;font-style:normal;font-weight:bold;fill:#000000;fill-opacity:1;stroke:none;stroke-width:1px;stroke-linecap:butt;stroke-linejoin:miter;stroke-opacity:1;font-family:Bitstream Vera Sans;-inkscape-font-specification:Sans Bold"
         x="109.09647"
         y="239.03442"
         id="text4782"><tspan
           sodipodi:role="line"
           id="tspan4784"
           x="109.09647"
           y="239.03442"
           style="text-align:center;text-anchor:middle">hidróxido de sódio</tspan></text>
      <text
         inkscape:export-ydpi="90"
         inkscape:export-xdpi="90"
         inkscape:export-filename="/home/vinicius/doc/qa/qb55d-capa/glicerol.png"
         id="text4786"
         y="393.35388"
         x="109.09647"
         style="font-size:12.52200603px;font-style:normal;font-weight:bold;fill:#000000;fill-opacity:1;stroke:none;stroke-width:1px;stroke-linecap:butt;stroke-linejoin:miter;stroke-opacity:1;font-family:Bitstream Vera Sans;-inkscape-font-specification:Sans Bold"
         xml:space="preserve"><tspan
           style="text-align:center;text-anchor:middle"
           y="393.35388"
           x="109.09647"
           id="tspan4788"
           sodipodi:role="line">glicerol</tspan></text>
      <text
         inkscape:export-ydpi="90"
         inkscape:export-xdpi="90"
         inkscape:export-filename="/home/vinicius/doc/qa/qb55d-capa/glicerol.png"
         xml:space="preserve"
         style="font-size:12.52200603px;font-style:normal;font-weight:bold;fill:#000000;fill-opacity:1;stroke:none;stroke-width:1px;stroke-linecap:butt;stroke-linejoin:miter;stroke-opacity:1;font-family:Bitstream Vera Sans;-inkscape-font-specification:Sans Bold"
         x="109.09647"
         y="459.12936"
         id="text4790"><tspan
           sodipodi:role="line"
           id="tspan4792"
           x="109.09647"
           y="459.12936"
           style="text-align:center;text-anchor:middle">palmitato de sódio</tspan><tspan
           id="tspan4794"
           sodipodi:role="line"
           x="109.09647"
           y="474.78186"
           style="text-align:center;text-anchor:middle">(sabão = ácido de sal carboxílico)</tspan></text>
    </g>
  </g>
</svg>
